id: +0.00000000e+00
id: +0.00000000e+00
id: +0.00000000e+00
id: +0.00000000e+00
id: +0.00000000e+00
id: +0.00000000e+00
id: +0.00000000e+00
id: +0.00000000e+00
id: +0.00000000e+00
id: +0.00000000e+00
id: +0.00000000e+00
id: +0.00000000e+00
id: +0.00000000e+00
id: +0.00000000e+00
id: +0.00000000e+00
id: +0.00000000e+00
id: +0.00000000e+00
id: +0.00000000e+00
id: +0.00000000e+00
id: +0.00000000e+00
id: +0.00000000e+00
id: +0.00000000e+00
id: +0.00000000e+00
id: +0.00000000e+00
id: +0.00000000e+00
id: +0.00000000e+00
id: +0.00000000e+00
id: +0.00000000e+00
id: +0.00000000e+00
id: +0.00000000e+00
id: +0.00000000e+00
id: +0.00000000e+00
id: +0.00000000e+00
id: +0.00000000e+00
id: +0.00000000e+00
id: +0.00000000e+00
id: +0.00000000e+00
id: +0.00000000e+00
id: +0.00000000e+00
id: +0.00000000e+00
id: +0.00000000e+00
id: +0.00000000e+00
id: +0.00000000e+00
id: +0.00000000e+00
id: +0.00000000e+00
id: +0.00000000e+00
id: +0.00000000e+00
id: +0.00000000e+00
id: +0.00000000e+00
id: +0.00000000e+00
id: +5.10000000e+01
id: +5.20000000e+01
id: +5.30000000e+01
id: +5.40000000e+01
id: +5.50000000e+01
id: +5.60000000e+01
id: +5.70000000e+01
id: +5.80000000e+01
id: +5.90000000e+01
id: +6.00000000e+01
id: +6.10000000e+01
id: +6.20000000e+01
id: +6.30000000e+01
id: +6.40000000e+01
id: +6.50000000e+01
id: +6.60000000e+01
id: +6.70000000e+01
id: +6.80000000e+01
id: +6.90000000e+01
id: +7.00000000e+01
id: +7.10000000e+01
id: +7.20000000e+01
id: +7.30000000e+01
id: +7.40000000e+01
id: +7.50000000e+01
id: +7.60000000e+01
id: +7.70000000e+01
id: +7.80000000e+01
id: +7.90000000e+01
id: +8.00000000e+01
id: +8.10000000e+01
id: +8.20000000e+01
id: +8.30000000e+01
id: +8.40000000e+01
id: +8.50000000e+01
id: +8.60000000e+01
id: +8.70000000e+01
id: +8.80000000e+01
id: +8.90000000e+01
id: +9.00000000e+01
id: +9.10000000e+01
id: +9.20000000e+01
id: +9.30000000e+01
id: +9.40000000e+01
id: +9.50000000e+01
id: +9.60000000e+01
id: +9.70000000e+01
id: +9.80000000e+01
id: +9.90000000e+01
id: +1.00000000e+02

Done!
